%YAML 1.1
%TAG !u! tag:unity3d.com,2011:
--- !u!114 &11400000
MonoBehaviour:
  m_ObjectHideFlags: 0
  m_CorrespondingSourceObject: {fileID: 0}
  m_PrefabInstance: {fileID: 0}
  m_PrefabAsset: {fileID: 0}
  m_GameObject: {fileID: 0}
  m_Enabled: 1
  m_EditorHideFlags: 0
  m_Script: {fileID: 11500000, guid: 70f1b35d40e6c90498d56df206318d2d, type: 3}
  m_Name: Level9
  m_EditorClassIdentifier: 
  score: 0
  stickSprite: {fileID: 0}
  objectCount: 9
  rotatingSprite: {fileID: 0}
  rotationSpeed: 500
  rotationDuration: 0
  showGiftBox: 0
  numberOfGiftbox: 0
  showBomb: 0
  numberOfBombs: 0
